1 Visualization | COVID dataset analyzing
…
#dev.off()

1.2 Confirmed cases bar graph

# Librerías a utilizar
library(tidyverse)
library(gganimate)
library(readxl)
# Cargo los datos a trabajar
cs_export <- read_excel("cs_export.xls") %>% print()

## # A tibble: 687 x 8
##    `Fecha declarac~ Territorio `Confirmados PC~ Hospitalizados   UCI Curados
##    <chr>            <chr>                 <dbl>          <dbl> <dbl>   <dbl>
##  1 22/05/2020       Andalucía                 9              6     0      26
##  2 22/05/2020       Almería                   1              2     0       4
##  3 22/05/2020       Córdoba                   0              0     0       1
##  4 22/05/2020       Granada                   0              1     0      11
##  5 22/05/2020       Huelva                    1              1     0       0
##  6 22/05/2020       Jaén                      5              2     0       1
##  7 22/05/2020       Málaga                    2              0     0       5
##  8 22/05/2020       Sevilla                   0              0     0       4
##  9 21/05/2020       Andalucía                16              5     0      52
## 10 21/05/2020       Almería                   0              0     0       4
## # ... with 677 more rows, and 2 more variables: Defunciones <dbl>, `Total
## #   confirmados (PCR+test)` <dbl>

# proceso los datos a utlizar
confirmados <- 
 cs_export %>% 
  group_by(Territorio, `Fecha declaración`)%>% 
  print()

## # A tibble: 687 x 8
## # Groups:   Territorio, Fecha declaración [686]
##    `Fecha declarac~ Territorio `Confirmados PC~ Hospitalizados   UCI Curados
##    <chr>            <chr>                 <dbl>          <dbl> <dbl>   <dbl>
##  1 22/05/2020       Andalucía                 9              6     0      26
##  2 22/05/2020       Almería                   1              2     0       4
##  3 22/05/2020       Córdoba                   0              0     0       1
##  4 22/05/2020       Granada                   0              1     0      11
##  5 22/05/2020       Huelva                    1              1     0       0
##  6 22/05/2020       Jaén                      5              2     0       1
##  7 22/05/2020       Málaga                    2              0     0       5
##  8 22/05/2020       Sevilla                   0              0     0       4
##  9 21/05/2020       Andalucía                16              5     0      52
## 10 21/05/2020       Almería                   0              0     0       4
## # ... with 677 more rows, and 2 more variables: Defunciones <dbl>, `Total
## #   confirmados (PCR+test)` <dbl>
…
data_provincias_mapa <- left_join(data_provincias, nombres_provincias, by = "id")
reemplazos <-cbind(data_provincias,gsub("AlmerÃ�a","Almeria", data_provincias_mapa$shapefile_provincias.Texto)                   )
colnames(reemplazos)[8] <- "Provincias"
reemplazos$Provincias <- as.character(reemplazos$Provincias)
reemplazos$Provincias[2443:3298] <- "Almeria"
reemplazos$Provincias <- as.factor(reemplazos$Provincias)
provinciasandalucia <- filter(reemplazos,reemplazos$Provincias %in% c("Sevilla","Huelva","CÃ³rdoba","MÃ¡laga","JaÃ©n","Almeria","CÃ¡diz","Granada"))
cs_export <- read_excel("cs_export.xls") %>% print()

## # A tibble: 687 x 8
##    `Fecha declarac~ Territorio `Confirmados PC~ Hospitalizados   UCI Curados
##    <chr>            <chr>                 <dbl>          <dbl> <dbl>   <dbl>
##  1 22/05/2020       Andalucía                 9              6     0      26
##  2 22/05/2020       Almería                   1              2     0       4
##  3 22/05/2020       Córdoba                   0              0     0       1
##  4 22/05/2020       Granada                   0              1     0      11
##  5 22/05/2020       Huelva                    1              1     0       0
##  6 22/05/2020       Jaén                      5              2     0       1
##  7 22/05/2020       Málaga                    2              0     0       5
##  8 22/05/2020       Sevilla                   0              0     0       4
##  9 21/05/2020       Andalucía                16              5     0      52
## 10 21/05/2020       Almería                   0              0     0       4
## # ... with 677 more rows, and 2 more variables: Defunciones <dbl>, `Total
## #   confirmados (PCR+test)` <dbl>

# proceso los datos a utlizar
confirmados <- 
  cs_export %>% 
  group_by(Territorio, `Fecha declaración`)%>% 
  print()

## # A tibble: 687 x 8
## # Groups:   Territorio, Fecha declaración [686]
##    `Fecha declarac~ Territorio `Confirmados PC~ Hospitalizados   UCI Curados
##    <chr>            <chr>                 <dbl>          <dbl> <dbl>   <dbl>
##  1 22/05/2020       Andalucía                 9              6     0      26
##  2 22/05/2020       Almería                   1              2     0       4
##  3 22/05/2020       Córdoba                   0              0     0       1
##  4 22/05/2020       Granada                   0              1     0      11
##  5 22/05/2020       Huelva                    1              1     0       0
##  6 22/05/2020       Jaén                      5              2     0       1
##  7 22/05/2020       Málaga                    2              0     0       5
##  8 22/05/2020       Sevilla                   0              0     0       4
##  9 21/05/2020       Andalucía                16              5     0      52
## 10 21/05/2020       Almería                   0              0     0       4
## # ... with 677 more rows, and 2 more variables: Defunciones <dbl>, `Total
## #   confirmados (PCR+test)` <dbl>
…
